<svg width="74" height="74" viewBox="0 0 74 74" fill="none" xmlns="http://www.w3.org/2000/svg">
<g clip-path="url(#clip0)">
<path d="M51.8281 29.4334V32.8552H52.9688C54.4813 32.8552 55.9319 33.4561 57.0015 34.5256C58.071 35.5952 58.6719 37.0458 58.6719 38.5584C58.6719 40.0709 58.071 41.5215 57.0015 42.5911C55.9319 43.6606 54.4813 44.2615 52.9688 44.2615H51.8281C51.8281 45.9092 51.5036 47.5407 50.8731 49.063C50.2425 50.5852 49.3183 51.9684 48.1532 53.1335C46.9881 54.2986 45.605 55.2227 44.0827 55.8533C42.5605 56.4838 40.9289 56.8084 39.2812 56.8084H23.3125C19.9849 56.8084 16.7935 55.4865 14.4405 53.1335C12.0875 50.7805 10.7656 47.5891 10.7656 44.2615H9.625C8.11244 44.2615 6.66183 43.6606 5.59228 42.5911C4.52274 41.5215 3.92188 40.0709 3.92188 38.5584C3.92188 37.0458 4.52274 35.5952 5.59228 34.5256C6.66183 33.4561 8.11244 32.8552 9.625 32.8552H10.7656V29.4334H51.8281Z" fill="#FFE4C2"/>
<path d="M33.0822 43.1209C32.2098 43.1172 31.3649 43.4266 30.7012 43.9929C30.0377 43.4269 29.1933 43.1175 28.3213 43.1209C26.3493 43.1209 23.5604 45.4021 17.6094 41.9802C17.6094 41.9802 18.7996 49.9646 28.3213 49.9646C29.1937 49.9683 30.0386 49.6589 30.7023 49.0926C31.3661 49.6589 32.2109 49.9683 33.0834 49.9646C42.6033 49.9646 44.9844 41.9802 44.9844 41.9802C39.0333 45.4021 35.0542 43.1209 33.0822 43.1209Z" fill="white"/>
<path d="M60.9531 23.7302L56.3906 21.449L50.6875 19.1677V21.449H11.9062C11.9062 21.449 16.4688 2.05836 37 2.05836C58.6719 2.05836 64.375 22.5896 64.375 22.5896V26.0115L60.9531 23.7302Z" fill="#2563BF"/>
<path d="M15.3281 38.5584V24.8709H10.7656V52.2459C10.7656 75.0584 35.5267 72.7771 42.7031 72.7771C37 63.6521 51.8281 63.585 51.8281 52.2459V24.8709H47.2656V40.8396C47.2656 45.0748 45.5832 49.1365 42.5885 52.1312C39.5938 55.1259 35.5321 56.8084 31.2969 56.8084C27.0617 56.8084 23 55.1259 20.0053 52.1312C17.0105 49.1365 15.3281 45.0748 15.3281 40.8396V38.5584Z" fill="white"/>
<path d="M51.8281 52.2459V45.1562C46.8872 57.9766 34.4527 67.074 19.8906 67.074C18.7426 67.074 17.6088 67.018 16.4893 66.9059C24.2512 73.8774 37.7186 72.7771 42.7031 72.7771C37 63.6521 51.8281 63.585 51.8281 52.2459Z" fill="#EDEDED"/>
<path d="M14.7578 55.6677C15.7027 55.6677 16.4688 54.9017 16.4688 53.9568C16.4688 53.0119 15.7027 52.2459 14.7578 52.2459C13.8129 52.2459 13.0469 53.0119 13.0469 53.9568C13.0469 54.9017 13.8129 55.6677 14.7578 55.6677Z" fill="white"/>
<path d="M35.7935 49.7282C43.0664 48.4078 44.9842 41.9802 44.9842 41.9802C43.5706 42.8194 42.0192 43.4006 40.4022 43.6966C39.6023 45.6205 37.6788 48.1396 35.7935 49.7282Z" fill="#EDEDED"/>
<path d="M52.9688 27.1521V23.7302C52.9688 22.4703 51.9474 21.449 50.6875 21.449H11.9062C10.6464 21.449 9.625 22.4703 9.625 23.7302V27.1521C9.625 28.412 10.6464 29.4334 11.9062 29.4334H50.6875C51.9474 29.4334 52.9688 28.412 52.9688 27.1521Z" fill="white"/>
<path d="M50.6875 21.449H45.0272C43.0949 24.6825 40.4305 27.4173 37.2485 29.4334H50.6875C51.2925 29.4334 51.8728 29.193 52.3006 28.7652C52.7284 28.3374 52.9688 27.7571 52.9688 27.1521V23.7302C52.9688 23.1252 52.7284 22.545 52.3006 22.1172C51.8728 21.6893 51.2925 21.449 50.6875 21.449Z" fill="#EDEDED"/>
<path d="M65.5156 31.7146C68.0354 31.7146 70.0781 29.6719 70.0781 27.1521C70.0781 24.6323 68.0354 22.5896 65.5156 22.5896C62.9958 22.5896 60.9531 24.6323 60.9531 27.1521C60.9531 29.6719 62.9958 31.7146 65.5156 31.7146Z" fill="white"/>
<path d="M68.9232 24.1189C68.8644 24.9903 68.6061 25.8365 68.1682 26.5922C67.7303 27.3479 67.1246 27.9928 66.3978 28.4771C65.671 28.9614 64.8426 29.2721 63.9766 29.3853C63.1106 29.4985 62.2302 29.4111 61.4033 29.1298C61.6863 29.718 62.0921 30.2387 62.5935 30.6566C63.0949 31.0745 63.6801 31.38 64.3097 31.5525C64.9392 31.7249 65.5984 31.7602 66.2428 31.6561C66.8872 31.5519 67.5017 31.3107 68.0449 30.9488C68.588 30.5868 69.0472 30.1125 69.3914 29.5579C69.7356 29.0033 69.9568 28.3813 70.0401 27.7339C70.1233 27.0866 70.0667 26.4288 69.874 25.8052C69.6814 25.1815 69.3571 24.6065 68.9232 24.1189Z" fill="#EDEDED"/>
<path d="M52.9688 31.7146V29.702C53.0163 29.6599 53.0624 29.6165 53.1071 29.5716C53.4258 29.2546 53.6784 28.8775 53.8505 28.4622C54.0225 28.0469 54.1105 27.6016 54.1094 27.1521V23.7302C54.1089 23.0225 53.8893 22.3324 53.4809 21.7545C53.0724 21.1766 52.4951 20.7393 51.8281 20.5027V14.6052C51.8281 14.3027 51.708 14.0126 51.494 13.7987C51.2801 13.5848 50.99 13.4646 50.6875 13.4646C50.385 13.4646 50.0949 13.5848 49.881 13.7987C49.667 14.0126 49.5469 14.3027 49.5469 14.6052V20.3083H13.4442C14.2111 18.1091 15.243 16.0116 16.5172 14.062C19.7666 9.10597 24.1209 5.79816 29.4576 4.2298C29.748 4.14461 29.9926 3.94763 30.1378 3.68215C30.2829 3.41667 30.3168 3.10441 30.2318 2.814C30.1613 2.57801 30.0168 2.37093 29.8197 2.22331C29.6225 2.0757 29.3831 1.99537 29.1368 1.99418C29.0278 1.99444 28.9194 2.00979 28.8146 2.0398C25.5263 2.99929 22.4747 4.63488 19.855 6.84183C17.7043 8.66863 15.8484 10.8164 14.3529 13.2094C13.2664 14.9287 12.3514 16.7506 11.6211 18.6487C11.3405 19.3779 11.141 19.9844 11.0067 20.4282C10.2824 20.6259 9.64312 21.0562 9.18734 21.6528C8.73157 22.2495 8.48457 22.9794 8.48438 23.7302V27.1521C8.48323 27.6016 8.57123 28.0469 8.74327 28.4622C8.91532 28.8775 9.168 29.2546 9.4867 29.5716C9.53161 29.6166 9.57795 29.6599 9.625 29.7021V31.7146C7.80992 31.7146 6.06919 32.4356 4.78574 33.7191C3.50229 35.0025 2.78125 36.7433 2.78125 38.5583C2.78125 40.3734 3.50229 42.1141 4.78574 43.3976C6.06919 44.6811 7.80992 45.4021 9.625 45.4021V45.4377C9.625 45.7402 9.74517 46.0304 9.95908 46.2443C10.173 46.4582 10.4631 46.5784 10.7656 46.5784C11.0681 46.5784 11.3583 46.4582 11.5722 46.2443C11.7861 46.0304 11.9062 45.7402 11.9062 45.4377V30.574H14.1875V38.5583C14.1875 38.8609 14.3077 39.151 14.5216 39.3649C14.7355 39.5788 15.0256 39.699 15.3281 39.699C15.6306 39.699 15.9208 39.5788 16.1347 39.3649C16.3486 39.151 16.4688 38.8609 16.4688 38.5583V30.574H35.9207C36.2232 30.574 36.5133 30.4538 36.7272 30.2399C36.9411 30.026 37.0613 29.7358 37.0613 29.4333C37.0613 29.1308 36.9411 28.8407 36.7272 28.6268C36.5133 28.4129 36.2232 28.2927 35.9207 28.2927H11.9062C11.6042 28.2914 11.3148 28.1708 11.1012 27.9571C10.8876 27.7435 10.767 27.4542 10.7656 27.1521V23.7302C10.767 23.4281 10.8876 23.1388 11.1012 22.9252C11.3148 22.7115 11.6042 22.5909 11.9062 22.5896H50.6875C50.9896 22.591 51.2789 22.7116 51.4925 22.9252C51.7061 23.1388 51.8267 23.4281 51.8281 23.7302V27.1521C51.8267 27.4542 51.7061 27.7435 51.4925 27.9571C51.2789 28.1707 50.9896 28.2913 50.6875 28.2927H45.0457C44.7432 28.2927 44.453 28.4129 44.2391 28.6268C44.0252 28.8407 43.9051 29.1308 43.9051 29.4333C43.9051 29.7358 44.0252 30.026 44.2391 30.2399C44.453 30.4538 44.7432 30.574 45.0457 30.574H46.125V38.5583C46.125 38.8609 46.2452 39.151 46.4591 39.3649C46.673 39.5788 46.9631 39.699 47.2656 39.699C47.5681 39.699 47.8583 39.5788 48.0722 39.3649C48.2861 39.151 48.4062 38.8609 48.4062 38.5583V30.574H50.6875V52.2458C50.6832 54.212 50.2198 55.873 49.2289 57.477C48.1067 59.2935 46.4216 60.7349 44.7918 62.1279C44.5139 62.366 44.2244 62.6127 43.9464 62.8565C42.9099 63.7662 42.0843 64.5646 41.4256 65.5028C40.6456 66.6077 40.2535 67.7783 40.2565 68.9831C40.2681 69.8732 40.4528 70.7526 40.8001 71.5722C37.486 71.3544 34.4547 70.5663 31.7688 69.2155C29.4307 68.0447 27.3437 66.4285 25.6251 64.4577C25.5277 64.3414 25.4081 64.2458 25.2733 64.1763C25.1385 64.1068 24.9912 64.0649 24.84 64.0531C24.6888 64.0412 24.5368 64.0596 24.3928 64.1072C24.2488 64.1548 24.1158 64.2307 24.0014 64.3303C23.8871 64.43 23.7938 64.5514 23.727 64.6875C23.6601 64.8236 23.6211 64.9717 23.6122 65.1231C23.6033 65.2745 23.6246 65.4262 23.675 65.5692C23.7254 65.7122 23.8038 65.8438 23.9056 65.9562C24.7672 66.9444 25.7143 67.8547 26.7358 68.6765C27.9773 69.6741 29.3207 70.5377 30.7437 71.2529C30.7998 71.2814 30.8577 71.3074 30.9138 71.3353C27.3291 70.9166 24.309 70.134 21.7798 68.9731C19.0209 67.7099 16.8166 65.9818 15.2255 63.836C13.3548 61.3053 12.2969 58.2412 11.9918 54.4672C11.9737 54.2425 11.8894 54.0281 11.7495 53.8513C11.6097 53.6745 11.4206 53.543 11.206 53.4736C10.9915 53.4042 10.7613 53.3999 10.5443 53.4613C10.3274 53.5227 10.1335 53.647 9.98715 53.8185C9.88938 53.9322 9.81531 54.0643 9.76928 54.2071C9.72325 54.3498 9.70619 54.5003 9.7191 54.6497C10.0485 58.803 11.2846 62.3518 13.3933 65.1934C14.8424 67.1259 16.6644 68.7481 18.7514 69.964C20.7731 71.132 22.9453 72.0176 25.2074 72.596C29.8768 73.835 34.656 73.9805 37.8455 73.9805C38.9719 73.9805 39.9927 73.9605 40.8951 73.9434C41.5867 73.9291 42.1827 73.9177 42.686 73.9177H42.7031C42.7498 73.9174 42.7963 73.9143 42.8426 73.9083C42.8554 73.9067 42.8681 73.9045 42.8808 73.9025C42.9153 73.897 42.9492 73.8901 42.9826 73.8816C42.995 73.8785 43.0074 73.8757 43.0196 73.8721C43.0628 73.8599 43.1053 73.8451 43.1467 73.8279C43.1505 73.8262 43.1542 73.824 43.1581 73.8223C43.1943 73.8065 43.2296 73.7887 43.2639 73.7691C43.2793 73.7605 43.294 73.751 43.3088 73.7418C43.3313 73.7275 43.353 73.7133 43.3744 73.6971C43.3902 73.6856 43.406 73.6743 43.4213 73.6621C43.4474 73.6407 43.4726 73.6182 43.4967 73.5946C43.5155 73.5764 43.5331 73.5571 43.5506 73.5376C43.5662 73.5204 43.5814 73.5031 43.5957 73.485C43.6099 73.4669 43.6225 73.4503 43.6352 73.4322C43.6501 73.4111 43.6637 73.3895 43.6779 73.3672C43.6855 73.3547 43.6946 73.3431 43.7017 73.3303C43.704 73.3263 43.7053 73.322 43.7076 73.318C43.7267 73.2822 43.7439 73.2454 43.7592 73.2078C43.7658 73.1916 43.7715 73.1752 43.7772 73.1586C43.7871 73.131 43.796 73.1028 43.8037 73.0742C43.8078 73.0587 43.8121 73.0434 43.8157 73.0277C43.8246 72.9883 43.8315 72.9484 43.8362 72.9083C43.8362 72.904 43.8376 72.8998 43.838 72.8956C43.842 72.8562 43.8439 72.8167 43.8438 72.7771C43.8438 72.7707 43.8429 72.7644 43.8428 72.758C43.8428 72.7469 43.8416 72.7357 43.841 72.7246C43.8393 72.6876 43.8361 72.6509 43.8308 72.6147C43.8293 72.6044 43.8279 72.5942 43.8261 72.5839C43.8188 72.5399 43.8088 72.4965 43.7963 72.4537L43.7953 72.4496C43.7814 72.4038 43.7647 72.3589 43.7451 72.3153C43.7418 72.3079 43.738 72.301 43.7345 72.2933C43.718 72.2582 43.6997 72.224 43.6796 72.1908C43.6761 72.1848 43.6735 72.1784 43.6698 72.1726C42.907 70.9507 42.5377 69.9084 42.5377 68.9831C42.5389 68.4767 42.6544 67.9771 42.8756 67.5217C43.225 66.7745 43.9051 65.9604 45.0143 64.9595C45.4264 64.5831 45.8712 64.2039 46.3431 63.8018C47.5437 62.7781 48.9038 61.6189 50.0773 60.1946C50.9407 59.1643 51.636 58.0042 52.1375 56.757C52.6993 55.3199 52.9814 53.7888 52.9688 52.2458V45.4021C54.7838 45.4021 56.5246 44.6811 57.808 43.3976C59.0915 42.1141 59.8125 40.3734 59.8125 38.5583C59.8125 36.7433 59.0915 35.0025 57.808 33.7191C56.5246 32.4356 54.7838 31.7146 52.9688 31.7146ZM9.625 43.1208C8.41495 43.1208 7.25446 42.6401 6.39883 41.7845C5.54319 40.9289 5.0625 39.7684 5.0625 38.5583C5.0625 37.3483 5.54319 36.1878 6.39883 35.3322C7.25446 34.4765 8.41495 33.9958 9.625 33.9958V43.1208ZM52.9688 43.1208V33.9958C54.1788 33.9958 55.3393 34.4765 56.1949 35.3322C57.0506 36.1878 57.5312 37.3483 57.5312 38.5583C57.5312 39.7684 57.0506 40.9289 56.1949 41.7845C55.3393 42.6401 54.1788 43.1208 52.9688 43.1208Z" fill="black"/>
<path d="M21.0312 37.4177C21.0312 37.1152 21.1514 36.8251 21.3653 36.6112C21.5792 36.3973 21.8694 36.2771 22.1719 36.2771C22.4744 36.2771 22.7645 36.3973 22.9784 36.6112C23.1923 36.8251 23.3125 37.1152 23.3125 37.4177C23.3125 37.7202 23.4327 38.0104 23.6466 38.2243C23.8605 38.4382 24.1506 38.5584 24.4531 38.5584C24.7556 38.5584 25.0458 38.4382 25.2597 38.2243C25.4736 38.0104 25.5938 37.7202 25.5938 37.4177C25.5938 36.5102 25.2332 35.6398 24.5915 34.9981C23.9498 34.3564 23.0794 33.9959 22.1719 33.9959C21.2643 33.9959 20.394 34.3564 19.7522 34.9981C19.1105 35.6398 18.75 36.5102 18.75 37.4177C18.75 37.7202 18.8702 38.0104 19.0841 38.2243C19.298 38.4382 19.5881 38.5584 19.8906 38.5584C20.1931 38.5584 20.4833 38.4382 20.6972 38.2243C20.9111 38.0104 21.0312 37.7202 21.0312 37.4177Z" fill="black"/>
<path d="M37 37.4177C37 37.7202 37.1202 38.0104 37.3341 38.2243C37.548 38.4382 37.8381 38.5584 38.1406 38.5584C38.4431 38.5584 38.7333 38.4382 38.9472 38.2243C39.1611 38.0104 39.2812 37.7202 39.2812 37.4177C39.2812 37.1152 39.4014 36.8251 39.6153 36.6112C39.8292 36.3973 40.1194 36.2771 40.4219 36.2771C40.7244 36.2771 41.0145 36.3973 41.2284 36.6112C41.4423 36.8251 41.5625 37.1152 41.5625 37.4177C41.5625 37.7202 41.6827 38.0104 41.8966 38.2243C42.1105 38.4382 42.4006 38.5584 42.7031 38.5584C43.0056 38.5584 43.2958 38.4382 43.5097 38.2243C43.7236 38.0104 43.8438 37.7202 43.8438 37.4177C43.8438 36.5102 43.4832 35.6398 42.8415 34.9981C42.1998 34.3564 41.3294 33.9959 40.4219 33.9959C39.5143 33.9959 38.644 34.3564 38.0022 34.9981C37.3605 35.6398 37 36.5102 37 37.4177Z" fill="black"/>
<path d="M40.4829 30.574C41.1129 30.574 41.6235 30.0633 41.6235 29.4333C41.6235 28.8034 41.1129 28.2927 40.4829 28.2927C39.853 28.2927 39.3423 28.8034 39.3423 29.4333C39.3423 30.0633 39.853 30.574 40.4829 30.574Z" fill="black"/>
<path d="M33.5982 3.38573C33.6396 3.38573 33.6837 3.38288 33.7265 3.3786C34.016 3.34609 34.2821 3.20404 34.4702 2.98159C34.6583 2.75914 34.7542 2.47314 34.7381 2.18227C34.7221 1.8914 34.5953 1.61769 34.3839 1.41728C34.1725 1.21687 33.8924 1.10495 33.6011 1.10448C33.5583 1.10448 33.5141 1.10733 33.4713 1.11161C33.1817 1.14414 32.9155 1.2863 32.7274 1.5089C32.5393 1.73151 32.4435 2.01767 32.4598 2.30865C32.476 2.59964 32.603 2.87337 32.8147 3.07367C33.0264 3.27396 33.3068 3.38562 33.5982 3.38573Z" fill="black"/>
<path d="M65.5158 21.449C65.4124 21.449 65.3099 21.4521 65.2078 21.4575C64.9939 20.8406 64.6546 19.9409 64.1599 18.8555C63.0316 16.3756 61.612 14.0389 59.931 11.8948C57.6386 8.94074 54.7942 6.46004 51.5559 4.59054C47.6008 2.33352 43.1025 1.1045 38.1878 0.937685C38.0348 0.931631 37.8822 0.95683 37.7393 1.01174C37.5964 1.06665 37.4662 1.15013 37.3566 1.25706C37.1955 1.41261 37.0838 1.61213 37.0353 1.83075C36.9869 2.04937 37.0038 2.27742 37.0841 2.48646C37.1644 2.6955 37.3044 2.87629 37.4867 3.00629C37.6691 3.13629 37.8856 3.20975 38.1094 3.21751C42.6491 3.37434 46.7924 4.50356 50.4253 6.57237C55.5225 9.47811 58.749 13.7726 60.5569 16.8622C61.3685 18.2458 62.0748 19.6885 62.6699 21.1781C62.8014 21.5094 62.9089 21.7991 62.9941 22.0385C62.5357 22.2659 62.1098 22.5536 61.7278 22.894C61.6488 22.8206 61.5598 22.7588 61.4634 22.7105L56.9009 20.4293C56.6307 20.2967 56.319 20.2764 56.0339 20.3727C55.7487 20.469 55.5132 20.674 55.3785 20.9432C55.2439 21.2124 55.2212 21.5239 55.3152 21.8098C55.4093 22.0957 55.6125 22.3328 55.8806 22.4695L60.363 24.7107C59.8342 25.8273 59.6824 27.0855 59.9303 28.2959C60.1783 29.5062 60.8126 30.6033 61.7379 31.422C62.6632 32.2407 63.8294 32.7368 65.0609 32.8355C66.2925 32.9343 67.5228 32.6304 68.5667 31.9696C69.6106 31.3088 70.4117 30.3268 70.8493 29.1714C71.287 28.016 71.3376 26.7498 70.9935 25.5632C70.6494 24.3765 69.9292 23.3338 68.9413 22.5918C67.9534 21.8498 66.7513 21.4488 65.5158 21.449ZM65.5158 30.574C64.839 30.574 64.1774 30.3733 63.6147 29.9973C63.052 29.6213 62.6134 29.0869 62.3544 28.4616C62.0954 27.8363 62.0276 27.1483 62.1596 26.4845C62.2917 25.8207 62.6176 25.211 63.0961 24.7325C63.5747 24.2539 64.1844 23.928 64.8482 23.796C65.512 23.6639 66.2 23.7317 66.8253 23.9907C67.4505 24.2497 67.985 24.6883 68.361 25.251C68.737 25.8137 68.9376 26.4753 68.9376 27.1521C68.9366 28.0593 68.5757 28.9291 67.9342 29.5706C67.2927 30.2121 66.423 30.5729 65.5158 30.574Z" fill="black"/>
<path d="M16.9668 41.0379C16.7897 41.1587 16.6502 41.3269 16.5643 41.5234C16.4784 41.7198 16.4496 41.9364 16.4812 42.1485C16.798 43.7822 17.4815 45.3227 18.4802 46.6539C19.9938 48.6847 22.9296 51.1052 28.3213 51.1052C29.1557 51.1062 29.9761 50.8908 30.7024 50.48C31.4286 50.8909 32.249 51.1063 33.0834 51.1052C38.4237 51.1052 41.6713 48.7274 43.4554 46.7328C45.3885 44.5714 46.0515 42.3976 46.0789 42.3062C46.144 42.0875 46.1422 41.8544 46.0735 41.6368C46.0048 41.4193 45.8724 41.2274 45.6935 41.0858C45.5146 40.9442 45.2974 40.8596 45.0699 40.8428C44.8424 40.826 44.615 40.8777 44.4172 40.9914C40.2242 43.4022 37.2143 42.75 35.0166 42.2738C34.2895 42.1162 33.6622 41.9802 33.0836 41.9802C32.2492 41.9791 31.4288 42.1946 30.7025 42.6054C29.9762 42.1945 29.1558 41.9791 28.3213 41.9802C27.7021 41.9802 27.0863 42.1371 26.4344 42.3023C24.5879 42.7717 22.2897 43.3555 18.178 40.9914C17.9922 40.8846 17.78 40.8323 17.5657 40.8405C17.3515 40.8487 17.1439 40.9171 16.9668 41.0379ZM26.9963 44.5134C27.5282 44.3782 27.9875 44.2615 28.3213 44.2615C28.921 44.2586 29.502 44.4704 29.9591 44.8586C30.1659 45.036 30.4294 45.1335 30.7018 45.1335C30.9743 45.1335 31.2377 45.036 31.4445 44.8586C31.9017 44.4704 32.4826 44.2586 33.0823 44.2615C33.4165 44.2615 33.9336 44.3735 34.5322 44.5039C36.3036 44.8877 39.0056 45.4734 42.4625 44.357C40.9797 46.3912 38.1481 48.8245 33.0823 48.8245C32.6481 48.8251 32.2211 48.7145 31.8419 48.5032V47.6833C31.8419 47.3808 31.7217 47.0907 31.5078 46.8768C31.2939 46.6629 31.0037 46.5427 30.7012 46.5427C30.3987 46.5427 30.1086 46.6629 29.8947 46.8768C29.6808 47.0907 29.5606 47.3808 29.5606 47.6833V48.5026C29.1814 48.7139 28.7543 48.8246 28.3202 48.824C23.1234 48.824 20.7034 46.2353 19.6055 44.2017C23.0532 45.5162 25.364 44.9282 26.9963 44.5134Z" fill="black"/>
<path d="M34.0862 53.5781C33.2608 54.1304 32.2901 54.4252 31.297 54.4252C30.3039 54.4252 29.3332 54.1304 28.5078 53.5781C28.3832 53.4932 28.243 53.4339 28.0954 53.4036C27.9477 53.3732 27.7955 53.3724 27.6476 53.4013C27.4996 53.4301 27.3589 53.488 27.2334 53.5715C27.1079 53.6551 27.0003 53.7627 26.9167 53.8881C26.8331 54.0135 26.7751 54.1543 26.7462 54.3022C26.7174 54.4502 26.7181 54.6024 26.7484 54.75C26.7787 54.8977 26.8379 55.0379 26.9227 55.1625C27.0075 55.2871 27.1162 55.3937 27.2424 55.4761C28.4422 56.279 29.8533 56.7077 31.297 56.7077C32.7406 56.7077 34.1518 56.279 35.3516 55.4761C35.6 55.3069 35.7716 55.0465 35.829 54.7515C35.8865 54.4565 35.8252 54.1507 35.6585 53.9006C35.4918 53.6506 35.2331 53.4764 34.9387 53.416C34.6443 53.3556 34.3379 53.4138 34.0862 53.5781Z" fill="black"/>
<path d="M10.7656 51.1409C11.3956 51.1409 11.9062 50.6302 11.9062 50.0002C11.9062 49.3703 11.3956 48.8596 10.7656 48.8596C10.1357 48.8596 9.625 49.3703 9.625 50.0002C9.625 50.6302 10.1357 51.1409 10.7656 51.1409Z" fill="black"/>
<path d="M23.221 60.9246C23.0872 60.6514 22.8509 60.4423 22.5635 60.3428C22.2761 60.2433 21.961 60.2616 21.687 60.3936C21.413 60.5255 21.2023 60.7605 21.101 61.0473C20.9996 61.334 21.0158 61.6492 21.146 61.9241C21.2762 62.1989 21.5098 62.4111 21.7959 62.5143C22.082 62.6175 22.3973 62.6034 22.673 62.475C22.9487 62.3466 23.1624 62.1144 23.2674 61.829C23.3725 61.5436 23.3604 61.2282 23.2338 60.9517L23.221 60.9232V60.9246Z" fill="black"/>
</g>
<defs>
<clipPath id="clip0">
<rect width="73" height="73" fill="white" transform="translate(0.5 0.91774)"/>
</clipPath>
</defs>
</svg>
