<svg width="190" height="48" viewBox="0 0 190 48" fill="none" xmlns="http://www.w3.org/2000/svg">
<path d="M0.925293 1.33067C37.3145 29.2342 125.874 73.3144 189 26.4073M189 26.4073H176.462M189 26.4073L183.949 38.9456" stroke="#F4A601"/>
</svg>
