<svg width="163" height="173" viewBox="0 0 163 173" fill="none" xmlns="http://www.w3.org/2000/svg">
<path opacity="0.3" fill-rule="evenodd" clip-rule="evenodd" d="M91.8225 1.37278C74.3785 1.41152 56.1211 2.03393 41.9267 12.1736C27.6751 22.3541 21.7575 39.702 15.3486 56.0015C8.50226 73.4136 -5.00814 92.9147 3.66049 109.495C12.4998 126.402 38.3353 122.206 54.9055 131.661C68.6818 139.522 76.4573 155.866 91.8225 159.802C109.704 164.382 132.219 167.59 145.621 154.897C159.145 142.088 153.635 119.641 153.889 101.016C154.07 87.7953 148.642 76.0652 146.875 62.9618C144.535 45.6056 153.551 25.0089 141.88 11.9516C130.229 -1.08235 109.305 1.33395 91.8225 1.37278Z" stroke="#FAA419"/>
<path fill-rule="evenodd" clip-rule="evenodd" d="M99.8225 10.53C82.3785 10.5687 64.1211 11.1912 49.9267 21.3309C35.6751 31.5114 29.7575 48.8592 23.3486 65.1587C16.5023 82.5708 2.99185 102.072 11.6605 118.652C20.4998 135.559 46.3353 131.363 62.9055 140.819C76.6818 148.679 84.4573 165.023 99.8225 168.959C117.704 173.539 140.219 176.748 153.621 164.054C167.145 151.246 161.635 128.798 161.889 110.173C162.07 96.9526 156.642 85.2225 154.875 72.119C152.535 54.7628 161.551 34.1661 149.88 21.1089C138.229 8.07488 117.305 10.4912 99.8225 10.53Z" fill="#FFF2DC"/>
<path d="M104.55 113.326C99.0011 114.089 93.3561 113.688 87.9666 112.146C84.396 111.168 83.0603 108.261 84.5679 104.871C86.2078 101.16 86.4194 97.1536 86.7103 93.1608C87.1203 87.5334 87.4377 81.8793 88.3105 76.3189C88.5764 74.3303 89.2696 72.425 90.3412 70.7374C91.4128 69.0497 92.8368 67.6208 94.5128 66.5513C95.3533 65.9879 96.3494 65.711 97.3561 65.7608C101.852 66.2834 105.767 67.9582 108.002 72.2859C110.237 76.6136 112.353 80.9146 114.614 85.1887C115.823 87.489 117.147 89.725 118.581 91.8879C119.321 92.9653 120.27 93.8774 121.372 94.5676C124.017 96.1889 124.942 98.7212 123.488 101.521C122.016 104.46 119.652 106.841 116.743 108.315C113.173 110.11 109.39 111.463 105.701 112.991C105.33 113.143 104.944 113.256 104.55 113.326ZM112.366 91.5261C112.391 91.2201 112.364 90.9119 112.287 90.6151C110.858 86.8367 109.642 82.9779 107.909 79.3067C107.188 77.495 106.114 75.8492 104.751 74.4679C103.387 73.0866 101.763 71.9981 99.9745 71.2676C95.5443 69.566 90.7173 71.9643 90.2016 76.627C89.4478 83.4201 89.2759 90.2801 88.8791 97.1133C88.9145 97.6418 89.0305 98.1616 89.223 98.6542C92.7896 96.7499 96.4736 95.0806 100.252 93.6565C104.087 92.5445 108.174 92.2497 112.366 91.5261ZM94.8169 100.061C91.9075 100.49 88.284 104.402 88.2047 107.135C88.2047 108.475 88.6146 109.748 90.228 110.056C95.3725 111.162 100.689 111.162 105.833 110.056C110.286 109.114 114.4 106.96 117.735 103.826C118.263 103.332 118.648 102.703 118.85 102.005C119.053 101.307 119.064 100.566 118.884 99.8623C118.703 99.1581 118.337 98.5169 117.825 98.0068C117.313 97.4967 116.674 97.1369 115.976 96.9659C113.265 96.497 110.541 96.0012 107.803 95.7734C105.621 95.5993 105.476 96.0548 106.481 98.0646C107.031 99.2092 107.234 100.493 107.065 101.755C106.895 103.016 106.361 104.198 105.529 105.152C104.891 106.004 104.016 106.643 103.017 106.987C102.017 107.33 100.94 107.364 99.9216 107.082C96.6552 106.412 94.8434 103.973 94.8169 100.061ZM100.213 97.7832C99.3211 98.0068 98.5272 98.5217 97.9535 99.2483C97.3798 99.9748 97.0583 100.873 97.0387 101.803C97.3035 102.677 97.8669 103.426 98.6279 103.917C99.3889 104.408 100.298 104.609 101.191 104.482C102.129 104.267 102.954 103.706 103.506 102.909C104.059 102.112 104.299 101.135 104.18 100.168C103.857 99.3959 103.296 98.7502 102.581 98.3275C101.866 97.9049 101.035 97.7281 100.213 97.8235V97.7832Z" fill="#FAA419"/>
<path d="M53.715 106.452C49.274 102.547 45.6729 97.7582 43.1354 92.3836C41.4426 88.8598 42.7651 85.7915 46.4547 84.6392C50.4221 83.3932 53.7414 80.7939 57.0344 78.2616C61.6894 74.6976 66.2915 71.0531 71.2375 67.8911C72.9737 66.7341 74.9378 65.9742 76.9932 65.6642C79.0487 65.3541 81.1461 65.5014 83.1396 66.0957C84.1546 66.3887 85.0553 66.9924 85.7184 67.8241C88.3633 71.7767 89.818 76.0642 87.993 80.8475C86.1681 85.6308 84.2902 90.2265 82.5181 95.0365C81.5498 97.6089 80.7111 100.23 80.0054 102.888C79.6807 104.203 79.6311 105.572 79.8599 106.908C80.4418 110.164 79.1061 112.629 75.8926 113.406C72.5905 114.259 69.1059 114.019 65.9477 112.723C62.0861 111.101 58.4097 109.025 54.6672 107.122C54.3305 106.928 54.0119 106.704 53.715 106.452ZM76.0909 97.6359C76.3417 97.4396 76.5604 97.2045 76.7389 96.9392C78.6962 93.1876 80.8121 89.503 82.5181 85.6308C83.4272 83.8034 83.9626 81.8087 84.0921 79.7665C84.2217 77.7243 83.9427 75.6766 83.2719 73.7463C81.5262 69.03 76.3158 66.8327 72.2955 69.7267C66.5031 73.8267 61.0414 78.4358 55.4606 82.8573C55.0745 83.2494 54.753 83.7018 54.5085 84.1972C58.4758 85.9926 62.4432 87.3592 66.0138 89.5566C69.5845 91.7539 72.56 94.782 76.0248 97.6359H76.0909ZM57.3121 89.5029C54.9846 87.4797 49.3773 87.2788 47.2614 89.1412C46.6779 89.5121 46.2602 90.099 46.0972 90.7771C45.9342 91.4552 46.0387 92.171 46.3886 92.7722C49.0921 97.6403 52.7673 101.884 57.1798 105.233C60.9939 108.11 65.503 109.892 70.2325 110.391C70.9816 110.473 71.7384 110.346 72.4218 110.025C73.1052 109.703 73.6895 109.2 74.1121 108.568C74.5347 107.936 74.7797 107.2 74.8208 106.437C74.8618 105.675 74.6975 104.916 74.3453 104.241C72.8377 101.749 71.3433 99.2303 69.6241 96.8989C68.3017 95.0366 67.7991 95.2241 66.8999 97.3947C66.3966 98.6283 65.5412 99.6814 64.4432 100.419C63.3451 101.157 62.0547 101.545 60.7372 101.535C59.6339 101.615 58.5322 101.359 57.5733 100.8C56.6144 100.242 55.8419 99.4058 55.3548 98.3996C53.5828 95.3715 54.2308 92.2362 57.2459 89.5029H57.3121ZM62.8135 92.2497C62.0151 91.6849 61.0537 91.4058 60.0812 91.4568C59.1088 91.5077 58.1809 91.8857 57.4443 92.531C56.9385 93.3453 56.7378 94.3163 56.8785 95.2678C57.0193 96.2193 57.4922 97.088 58.2113 97.7162C59.0256 98.3161 60.0303 98.5891 61.0315 98.4827C62.0328 98.3764 62.9597 97.8981 63.6334 97.1401C64.0486 96.3424 64.187 95.4264 64.0263 94.5394C63.8656 93.6524 63.4151 92.846 62.7474 92.2497H62.8135Z" fill="#FAA419"/>
</svg>
