<svg width="133" height="147" viewBox="0 0 133 147" fill="none" xmlns="http://www.w3.org/2000/svg">
<path opacity="0.1" d="M67.6388 143.6C68.0267 143.528 68.4255 143.544 68.8064 143.647C69.1873 143.751 69.5407 143.939 69.8411 144.197C68.8337 145.329 68.4623 145.004 67.09 145.005C65.4042 145.298 63.7049 145.505 61.9986 145.626C60.4879 145.425 59.6645 144.633 57.9908 144.881C57.4813 144.967 56.6644 145.657 56.1085 145.417C56.2351 144.659 55.9684 144.273 55.4132 144.197C54.9162 144.032 54.4108 143.895 53.8991 143.786C50.5575 143.053 47.1139 142.927 43.729 143.416C39.923 143.832 36.0959 144.016 32.2681 143.967C33.6422 145.521 35.6154 145.757 37.3895 146.747C26.5385 146.163 20.7804 136.14 21.0302 125.88C21.1514 120.457 24.0133 115.883 26.7357 111.391C28.1677 109.044 29.6923 106.738 31.2821 104.464C32.0545 103.328 32.8343 102.165 33.6543 101.072C34.1738 100.391 35.7679 99.1051 35.9388 98.18C36.2297 96.6895 33.0031 94.4983 32.0541 93.568C29.8701 91.4506 27.7036 89.3229 25.5968 87.1367C21.6417 83.0139 18.1525 78.5243 14.2223 74.3634C12.8603 72.5748 11.2426 71.0021 9.42249 69.6973C7.10223 68.3163 5.17749 66.3461 3.83819 63.9813C1.48366 59.3005 0.254893 54.1219 0.252241 48.8683C0.0609216 38.3237 2.05826 27.5363 9.61946 19.5298C11.2439 17.7296 12.7565 15.829 14.1487 13.8391C15.5801 11.9408 18.3573 10.8114 20.2662 9.50617C24.8282 6.29 29.8135 3.73901 35.0759 1.92791C39.8482 0.338756 44.9796 0.850037 49.89 0.523983C54.8003 0.197929 59.402 0.146729 63.8741 2.48179C66.1833 3.86607 68.398 5.40609 70.5033 7.09145C72.7301 8.71235 74.4112 10.7232 76.4984 12.4257C77.2146 12.8508 77.8236 13.4387 78.2774 14.1429C78.7312 14.8471 79.0174 15.6483 79.1134 16.4837C79.3343 18.2472 79.7857 19.9732 80.4558 21.6161C80.8286 22.2704 79.969 21.783 80.6474 22.565C81.0947 23.1049 82.1328 23.2522 82.8082 23.3757C84.1572 23.5481 85.5226 23.5419 86.87 23.3574C89.5266 23.0235 92.2027 22.8761 94.8794 22.9161C97.2885 23.0353 99.6499 23.6402 101.825 24.6954C104.001 25.7505 105.947 27.2347 107.55 29.061C109.404 31.6247 110.69 34.5638 111.319 37.6774C112.203 40.0258 112.58 42.5388 112.424 45.0471C112.268 47.5582 111.862 50.047 111.212 52.4755C110.202 55.002 108.945 57.4197 107.459 59.6924C108.97 59.633 110.454 59.2627 111.819 58.604C112.928 57.8139 112.129 57.5971 113.642 57.2307C114.344 57.1236 115.059 57.1357 115.757 57.2667C119.401 58.0649 122.707 59.9971 125.213 62.7931C127.199 65.3185 128.46 68.35 128.856 71.5543C129.3 73.3296 129.556 75.1478 129.619 76.978C129.427 78.7391 129.53 80.5203 129.922 82.2469C131.997 77.0256 130.815 71.5633 129.578 66.3696C139.573 83.9103 119.673 98.9698 109.728 110.634C108.345 112.291 107.114 114.214 105.681 115.783C104.54 117.147 102.967 118.067 101.231 118.386C97.3309 119.465 93.5076 124.271 90.412 126.883C86.7312 129.98 82.9851 133.043 79.0632 135.88C77.755 136.81 67.2303 142.801 67.7892 143.7C68.051 143.547 67.5683 143.476 67.6388 143.6ZM50.8662 28.1266C51.7277 26.9797 52.2791 25.6251 52.4661 24.1965C51.7085 25.0189 51.1491 26.0078 50.8316 27.0858C50.7483 27.4901 50.6941 27.9 50.6695 28.3123C50.5449 28.951 49.8486 28.6275 50.153 29.6518L50.8662 28.1266C50.5737 28.6749 51.5413 27.0244 50.8662 28.1266ZM31.6476 49.9777C32.4931 47.8086 33.5561 45.7331 34.8199 43.784C35.4497 42.9021 35.8913 41.8971 36.1167 40.8329C36.2093 40.3601 36.1646 39.8704 35.988 39.4228C35.3701 38.7469 35.5579 38.2598 36.5662 37.9058C38.1594 35.8422 39.9162 35.1683 40.0408 32.2426C40.0921 30.8217 39.8316 30.6911 40.6564 29.525C41.2577 28.7017 42.9143 28.0155 42.8461 26.7116C42.7779 25.4076 41.8132 25.4297 41.0379 25.9068C40.2626 26.3839 39.4606 29.305 39.0768 30.1424C37.9476 32.5711 37.1192 35.201 35.9699 37.5944C35.1279 39.3836 34.3705 41.0763 33.5594 43.0832C32.7484 45.0901 29.5026 48.2146 31.6724 49.9396C29.9271 50.9605 28.5135 51.7874 29.6777 53.912L31.6274 49.9423C32.0179 48.9123 31.0109 51.2696 31.6476 49.9777ZM17.7327 65.4964C18.3659 65.6683 18.8823 66.0027 19.5455 65.6148C18.7779 65.0029 18.8728 65.5369 18.2866 65.2432L17.7281 65.5699C17.3889 65.1789 17.0773 64.7954 16.7656 64.4119C15.8783 63.486 14.9035 62.6506 13.8551 61.9177C12.7651 61.1241 11.8478 60.1119 11.16 58.944C9.94923 57.7397 8.84988 56.4257 7.8757 55.0183C7.34291 53.7975 7.72445 52.4661 6.86671 51.2468C5.7927 49.7296 5.43899 50.0073 5.48931 47.8088C5.59309 44.4584 6.03406 41.1275 6.80541 37.8678C7.94079 31.4659 10.6171 25.4466 14.5973 20.343C19.4322 15.1313 25.2339 10.9365 31.6705 7.99851C37.9615 5.02136 44.9015 3.73006 51.8261 4.24813C56.7881 5.05097 61.38 7.39985 64.9637 10.9684C67.1084 12.9271 68.7769 15.3618 69.8387 18.0822C70.9004 20.8026 71.3267 23.7349 71.0842 26.65C70.6 29.3549 69.808 31.9938 68.7241 34.514C66.7535 41.3516 63.0793 47.5604 58.0549 52.543C55.2285 54.9743 51.9777 56.9466 49.066 59.31C48.0672 60.1299 47.2123 61.243 46.2733 62.0045C45.1918 62.8401 43.9574 63.4499 42.6417 63.7987C38.7809 64.8407 34.8599 65.6382 30.9013 66.1866C33.59 67.6788 36.2866 66.408 39.0934 65.78C44.5191 65.0034 49.6965 62.9751 54.2263 59.8512C58.7561 56.7274 62.5174 52.5914 65.2204 47.7622C68.985 42.118 73.593 36.6877 74.7724 29.7736C75.2373 26.5528 75.071 23.2708 74.283 20.1152C73.4949 16.9595 72.1005 13.9922 70.1797 11.383C66.1861 6.45752 58.9445 3.54989 52.7998 2.85331C45.5003 2.18105 38.1442 3.14375 31.2529 5.67305C29.9251 6.1197 28.9572 7.15732 27.6918 7.59103C26.7809 7.9117 25.8832 7.84732 24.9749 8.21357C21.9205 9.38724 19.5205 12.1586 17.1727 14.2863C11.6122 19.3028 7.52247 25.7735 5.3517 32.9891C4.79013 34.8893 4.3219 36.79 3.94697 38.6911C3.58428 40.3414 2.82834 42.3633 2.62542 43.9673C2.4225 45.5713 3.16178 46.0111 3.55962 47.2401C3.79882 48.7237 3.92991 50.223 3.95179 51.726C4.46041 53.4505 5.20199 55.0953 6.15545 56.6139C6.8509 58.6296 7.9139 60.495 9.28915 62.1131C10.5227 62.8428 11.7975 63.4983 13.1071 64.0762C14.5501 64.9785 16.1966 65.4923 17.8905 65.5691C18.2833 65.6459 16.6122 65.3267 17.7327 65.4964ZM75.308 105.565C76.6209 104.561 78.1892 104.209 79.5141 103.104C80.9717 102.021 82.3089 100.78 83.5022 99.4039C82.5724 99.4055 73.7969 106.425 74.8852 102.087C78.7065 103.647 82.111 96.7992 83.6738 94.0696C85.0151 91.6387 86.2111 89.1284 87.2553 86.5522C87.8288 85.1086 90.1801 81.5169 88.9518 80.1372C87.5189 81.7062 79.9367 95.7605 77.5856 93.7172C79.9971 91.2928 92.0517 78.5126 86.6898 75.637C86.8955 76.3655 87.6969 77.8535 87.0344 78.4061C86.3719 78.9586 85.8313 78.2139 85.3674 78.4617C84.9036 78.7094 84.2582 80.3129 83.9381 80.8537C83.2584 82.0294 80.0418 88.3904 78.3779 87.4305C79.8514 84.8711 87.2712 77.6782 83.5529 75.1143C82.5807 76.8383 81.6635 78.5771 80.5784 80.2256C79.8436 81.3863 78.3877 84.5484 77.1204 85.1012C76.527 85.4483 75.8374 85.5451 75.4538 84.7086C75.0701 83.8721 76.0463 83.584 76.2557 83.4614C76.4651 83.3389 77.3675 83.3298 77.9031 82.9222C78.5933 82.0537 79.1564 81.0891 79.5753 80.058C80.725 78.3514 81.7297 76.5491 82.5786 74.6705C83.2621 72.6439 82.5173 71.5 81.6539 69.5766C80.1669 65.6379 78.3068 61.8544 76.1 58.2789C76.108 60.0896 78.9515 64.9568 77.5184 65.913C76.6545 64.7038 75.9675 63.3746 75.4788 61.9664C74.6632 60.0859 74.7504 60.0349 72.6331 60.5661C72.2102 58.7624 72.0488 57.8665 70.3515 59.5431C69.9857 59.9221 69.7314 60.6603 69.2428 60.9461C68.0036 61.6709 68.5351 60.8885 67.2434 61.0311C65.9517 61.1737 65.6867 61.7295 64.6667 61.1238C63.3358 60.2991 62.8328 57.9056 62.4792 56.5093C60.9355 57.8838 58.1082 59.5375 57.0615 61.3758C56.0147 63.2141 57.0989 63.0751 54.9184 63.4547C51.0692 64.0955 47.4063 65.5861 44.1891 67.821C44.4745 68.1392 44.692 68.5136 44.828 68.9208C44.9639 69.3281 45.0155 69.7594 44.9794 70.1878C43.9937 70.0099 42.3464 68.2623 41.561 68.7217C40.4964 69.3444 43.4864 72.8765 44.0023 73.6593C43.2591 73.8568 42.4822 73.8862 41.7265 73.7456C40.9708 73.6051 40.2548 73.298 39.6294 72.8458C38.9928 72.4637 37.3895 69.9359 36.7054 70.1238C36.0213 70.3118 37.0607 72.4623 37.6429 72.994C38.2252 73.5258 41.1545 74.052 40.2759 74.9195C38.1181 77.054 35.076 70.2047 33.4734 70.1283C30.7556 69.9734 34.6764 74.2812 35.0686 74.8062C36.2682 76.4621 35.7796 76.748 36.1353 78.6382C36.4911 80.5284 38.0066 81.2687 38.945 82.6295C39.8833 83.9903 40.6277 85.5824 41.889 87.0607C44.6837 90.4949 47.4785 93.929 50.3329 97.3046C53.1873 100.68 56.1397 104.187 59.2237 107.476C61.4615 109.892 62.9971 112.341 66.2956 110.412C63.6164 107.099 60.6782 103.984 57.9293 100.712C56.2784 98.7543 52.195 94.4472 53.4322 91.5545C54.4563 92.535 54.421 93.6165 54.9988 94.8346C55.706 96.0704 56.5433 97.2249 57.4961 98.2777C58.8488 100.472 60.6536 102.343 62.7869 103.765L62.2462 100.733C64.562 101.571 65.6708 104.742 67.3726 106.34C67.975 106.907 71.2203 108.804 71.782 108.075C70.2678 106.569 69.0369 104.797 68.1496 102.844C67.5898 101.167 67.9352 100.14 69.153 101.951C69.86 103.619 70.9537 105.09 72.3414 106.239C72.9202 106.56 76.0052 106.665 75.3301 105.481L75.308 105.565ZM68.6807 117.905C67.1456 118.968 66.2943 116.943 65.3535 116.15C64.0855 114.864 63.621 114.947 61.8802 115.282C58.7093 115.719 55.4811 115.226 52.5778 113.862C49.3152 112.588 48.4046 107.887 44.9916 106.512C44.2704 106.226 43.8543 106.517 43.068 106.199C42.3342 105.897 41.6787 105.428 41.1517 104.829C40.6247 104.23 40.2404 103.516 40.0283 102.743C41.2955 103.864 42.1768 105.329 43.9399 105.524C43.281 104.612 41.4324 101.45 40.0453 101.507C38.6583 101.564 37.0248 103.557 36.3161 104.396C33.3001 108.046 29.5402 111.943 27.6396 116.284C25.9318 120.49 25.4288 125.099 26.1882 129.582C26.546 131.764 27.4389 133.82 28.7852 135.562C30.1314 137.304 31.888 138.675 33.8934 139.55C35.5198 140.352 37.2973 140.79 39.1054 140.835C40.9135 140.88 42.71 140.53 44.373 139.809C49.2732 138.304 54.09 136.533 58.8026 134.505C63.183 132.723 67.4367 130.636 71.5333 128.26C75.9119 125.527 80.1272 122.534 84.1571 119.296C91.878 113.529 99.0332 107.023 105.524 99.8668C108.446 96.4601 111.765 93.5048 114.521 89.8886C117.479 86.0296 119.814 81.7193 121.439 77.1188C122.069 75.4065 122.312 73.425 123.035 71.7528C123.758 70.0806 124.509 69.8063 123.899 67.5931C122.71 63.2197 118.647 62.4605 114.864 61.538C111.08 60.6155 106.772 62.1215 103.076 64.0477C100.785 65.0858 98.5663 66.2814 96.4357 67.6258C95.0402 68.6071 94.9173 68.514 94.9117 70.0968C95.0329 71.4131 95.234 72.7206 95.5139 74.0119C96.1265 79.1704 97.4848 83.9633 97.4428 89.1983C97.4121 91.8803 96.7052 91.9873 95.4638 93.8923C94.9432 94.7268 94.4729 95.5924 94.0554 96.4844C93.7702 97.0048 93.4675 97.5355 93.1448 98.0308C92.9761 98.2141 92.7685 98.3563 92.5377 98.4464C92.3068 98.5365 92.0587 98.5722 91.8122 98.551C90.0665 100.02 89.1199 102.483 87.628 104.276C86.0001 106.322 83.9729 108.005 81.6732 109.221C79.5479 110.228 76.9955 110.731 74.7547 111.617C72.1172 112.665 69.4091 113.589 66.7313 114.566L68.5853 117.819C67.7087 118.568 68.0459 116.791 68.6807 117.905ZM16.4614 34.4357C21.0241 27.5772 27.0758 21.8678 34.153 17.7451C35.7902 16.7682 37.4919 15.9068 39.2459 15.1669C41.1323 14.3936 43.5022 14.4689 45.3382 13.6072C47.1741 12.7455 45.7228 11.2604 44.9986 9.7036C44.4181 8.43996 44.1921 7.06332 42.8358 6.72502C41.2088 6.74664 39.5984 7.05812 38.0781 7.64542C36.2453 7.93445 34.4488 8.42412 32.7202 9.10563C29.2573 10.7972 25.9552 12.8076 22.8555 15.1117C22.0003 15.6119 19.6885 16.8227 19.421 17.9458C19.1535 19.0689 20.1969 19.3074 19.3414 20.8687C18.4859 22.4301 16.6983 23.4993 16.668 25.1202C16.6376 26.7412 18.2928 27.3998 19.1812 28.2239C15.8789 28.7174 14.003 33.021 12.5872 35.6409C11.1714 38.2609 9.33561 41.4095 9.37273 44.1698C11.6462 40.4823 12.9943 36.1102 16.4838 33.291L16.5138 34.4051C17.2292 33.3736 16.4593 33.9419 16.4789 34.4255L16.4614 34.4357ZM105.342 109.757C107.037 107.587 109.422 105.932 109.909 103.03C108.093 103.624 106.355 104.443 104.736 105.467C102.531 107.111 100.14 108.509 97.9577 110.234C93.8774 113.445 89.818 116.857 85.8936 120.261C81.7775 123.817 77.3695 127.011 72.7175 129.807C70.1519 131.308 67.6569 132.933 65.0383 134.299C62.9091 135.545 59.4914 136.53 57.9525 138.444C58.6075 139.593 65.8365 136.19 67.1967 136.29C68.9397 136.449 66.4344 137.443 65.7134 137.771C64.2191 138.456 62.6416 138.955 61.1775 139.693C63.8141 140.06 66.4983 139.594 68.8631 138.357C72.2891 136.511 75.4727 134.237 78.3394 131.588C81.2558 129.151 84.064 126.565 87.0354 124.143C90.0068 121.721 93.3754 118.077 96.858 116.512C92.2182 120.947 87.2016 124.966 82.5342 129.393C84.6189 129.376 86.8604 126.981 88.5197 125.727C90.8542 123.984 93.1484 122.171 95.3848 120.297C99.7299 117.052 103.749 113.382 107.385 109.34C107.123 108.88 105.772 109.694 105.357 109.866C107.025 107.688 105.981 109.572 105.38 109.782L105.342 109.757ZM84.0942 37.3115C84.7449 40.32 85.7515 43.2379 87.092 46.0022C87.9796 48.3357 88.4039 50.4687 90.9078 51.4324C95.3146 53.122 99.5376 51.0998 102.271 47.4026C103.243 46.1269 104.77 42.8049 104.213 41.174C103.656 39.543 100.749 38.4849 99.1857 38.1501C96.8748 37.9022 94.5436 37.9212 92.237 38.2067C89.4749 38.2192 86.8489 37.3269 84.1466 37.2808C84.2112 37.7617 84.5246 37.4134 84.1923 37.4427L84.0942 37.3115ZM60.2656 111.346C61.0164 109.846 52.2327 101.333 50.876 99.7689C47.401 95.6717 44.0033 91.506 40.7176 87.2509C39.2949 85.343 37.7338 83.5452 36.0471 81.8727C34.2298 80.1537 33.2207 78.0562 31.588 76.2528C30.2844 74.8227 28.3982 73.9221 26.9698 72.5179C25.5413 71.1138 24.4729 70.3006 22.2736 70.974C27.4649 77.4157 32.9714 83.5898 38.7726 89.4731C41.8209 92.6174 44.7499 95.8787 47.766 99.089C50.343 101.896 54.7838 105.075 55.7854 108.874C53.2038 108.427 50.8762 104.343 49.3059 102.526C48.1004 101.227 47.0439 99.7 45.7538 98.4978C44.7397 97.535 44.6215 97.3684 43.6107 98.2897C42.3609 99.4451 43.1995 99.7326 44.1822 100.926C46.4566 103.6 48.9284 106.095 51.5763 108.389C54.0024 110.462 57.1071 111.54 60.2783 111.409C60.4253 111.299 57.1806 111.241 60.3435 111.442L60.2656 111.346ZM100.579 34.388C101.602 32.9171 101.509 31.4867 103.124 33.4649C104.74 35.4431 105.964 37.9574 107.974 39.1158C108.525 33.795 104.903 31.4814 100.636 29.2619C98.6227 28.0607 96.4156 27.2288 94.1166 26.8045C92.3608 26.9581 90.6323 27.343 88.9748 27.9495C87.7436 28.1982 86.0692 28.2817 86.5142 30.0018C86.9592 31.7219 87.1885 30.409 88.4863 30.5222C89.7841 30.6354 89.6102 30.9022 90.1162 32.2801C90.6222 33.6581 90.7408 35.0503 92.2048 34.3118C93.6689 33.5733 91.4898 31.9952 92.9718 30.7983C94.2194 31.4359 94.0226 33.2957 95.3998 33.834C95.2709 29.5242 97.0562 34.2089 98.6065 34.3159C98.4659 33.6201 97.943 31.8041 99.0279 31.8296C100.113 31.8551 100.269 33.7209 100.429 34.2874C101.022 33.9403 100.298 33.6093 100.657 34.484L100.579 34.388ZM40.7708 94.2455C39.0552 89.52 33.5278 85.3738 30.0744 81.6413C28.1455 79.5632 26.1891 77.4776 24.1978 75.4124C22.7888 73.879 21.1592 71.0601 19.0972 70.5452C20.5259 73.6895 22.5797 76.5012 25.1302 78.8044C27.6897 81.6217 29.6787 84.8669 32.1684 87.725C34.6095 90.6745 37.2537 93.4453 40.0812 96.0163C40.7763 96.6235 42.3133 97.7284 43.0769 96.2915C43.5379 95.3853 42.0048 94.0423 40.9186 94.3005C40.588 93.5979 42.2195 94.011 40.8487 94.3414L40.7708 94.2455ZM21.2359 37.3013C22.4135 37.3669 23.673 37.2902 24.2205 38.4552C24.7681 39.6203 23.2007 40.7493 23.1527 41.7676C23.2596 43.3497 23.81 44.8681 24.7392 46.1442C24.981 46.5686 26.5095 50.2718 26.7049 50.3697C27.7296 50.9019 28.171 49.5121 28.0169 48.5885C27.8909 47.224 26.8267 46.7857 26.1094 45.6493C25.2923 44.5623 24.8944 43.2107 24.9903 41.8479C25.4444 40.5213 27.0659 40.9167 27.0029 39.0911C25.0989 39.2617 23.2616 35.8334 24.8154 34.4766C27.2807 32.3508 27.0553 37.3865 27.6658 38.0903C28.3853 36.8174 28.9862 35.4794 29.4605 34.0935C29.7924 32.8384 30.1886 33.1252 29.1559 32.4563C28.5202 32.1904 27.8264 32.1 27.145 32.1944C25.8031 32.424 24.5479 33.0185 23.5133 33.9144C22.4788 34.8102 21.7037 35.9737 21.2707 37.2809C24.2141 37.5867 23.0487 33.4589 21.3339 37.4326L21.2359 37.3013ZM30.6232 42.1366C34.2584 41.1654 35.6739 35.6457 36.9123 32.4694C37.508 30.9421 37.5089 29.4327 38.1235 28.2245C38.9351 26.816 39.5795 25.3153 40.0435 23.7535C38.2198 22.8399 34.6949 30.7016 34.3624 32.4049C34.0299 34.1083 34.8494 35.1379 34.1382 36.5441C33.1547 37.8653 31.7663 38.8184 30.1907 39.2539C29.4438 38.2291 31.6248 37.4012 30.273 36.3766C27.6673 38.4194 29.1744 40.0842 30.6232 42.1366C32.2519 41.8912 29.9644 41.2253 30.7213 42.2678L30.6232 42.1366ZM83.5484 71.2269C85.118 68.9177 83.5266 66.2886 82.6195 64.0843C81.4017 60.8252 79.9862 57.6455 78.3809 54.5635C76.1405 56.6756 78.2151 58.9277 79.2807 61.3693C80.695 64.6679 82.1166 67.9385 83.5484 71.2269C84.9852 69.4198 82.7146 69.192 83.6464 71.3581L83.5484 71.2269ZM23.7178 125.981C21.5193 129.106 23.735 133.893 25.3701 136.803C27.4559 140.463 29.7231 142.768 34.2515 142.547C34.1885 140.722 32.1201 141.012 30.9249 140.344C29.3789 139.44 28.0387 138.215 26.9922 136.75C25.0689 133.512 23.9616 129.844 23.7681 126.07C22.7924 127.584 23.8704 126.576 23.8159 126.113L23.7178 125.981ZM51.5537 13.3664C51.5216 11.7584 46.5993 3.65129 45.313 6.17188C44.681 7.39034 46.1549 10.6304 46.642 11.6893C47.6747 14.0323 49.1045 13.4788 51.5537 13.3664C51.6496 13.0039 50.5897 13.5532 51.6518 13.4977L51.5537 13.3664ZM90.0915 83.5257C88.8704 86.0789 87.6117 88.6069 86.353 91.135C85.5378 92.7671 83.9411 94.6206 83.8967 96.4619C86.3359 94.6579 94.7154 86.2906 90.0915 83.5257C89.4341 85.2305 91.7132 84.5339 90.1896 83.657L90.0915 83.5257ZM45.3293 36.6228C43.7129 39.4473 42.2699 42.37 41.0084 45.3744C40.1785 47.0623 36.9144 51.7064 38.3718 53.4472C40.5994 51.2719 41.7233 47.078 43.2109 44.2982C44.2127 42.4627 47.6193 38.3954 45.3293 36.6228C45.155 37.3377 46.3636 37.621 45.4778 36.8425L45.3293 36.6228ZM46.4791 31.4943C45.3087 30.7879 41.521 39.6992 40.9017 40.9809L37.9677 47.3888C37.6705 48.0106 35.3218 51.6477 35.7947 52.3142C36.69 53.5587 37.3305 51.4158 37.67 50.7457C38.6898 48.4517 39.8546 46.1672 40.9469 43.8779C42.849 39.8654 44.896 35.8625 46.5926 31.7344C46.5248 31.6562 46.3753 32.333 46.6276 31.714L46.4791 31.4943ZM122.844 91.9986C126.069 89.8998 129.054 81.2934 127.877 77.4316C126.417 82.6704 123.849 87.0252 123.01 92.208L122.844 91.9986ZM87.3428 59.8363C88.9941 59.059 82.3591 42.9237 81.1057 40.9692C80.1754 43.706 82.2826 47.118 83.1415 49.7276C84.4014 53.1636 85.8459 56.5153 87.3428 59.8363C88.3343 59.6571 86.9181 58.7643 87.5086 60.0456L87.3428 59.8363ZM85.4413 102.113C86.9906 99.1552 93.1616 93.8951 92.0379 90.1673C89.5079 94.2596 86.6004 98.0997 83.3545 101.636L85.4413 102.113C84.743 101.908 85.9252 101.287 85.4413 102.113ZM79.9805 51.6945C78.7693 53.6525 81.0336 56.9725 81.6914 58.7803C82.6395 61.2199 83.3334 64.3977 85.1634 66.1799C83.8087 61.2227 82.0759 56.3796 79.9805 51.6945C82.0271 56.6743 79.2558 52.8728 79.9805 51.6945ZM51.8709 5.91936C51.2063 8.26493 53.9067 14.6778 57.0058 12.8885C55.2884 10.5689 53.5884 8.23899 51.8709 5.91936C51.3344 7.83636 53.7167 8.42329 51.8709 5.91936ZM16.5855 27.3847C13.8461 26.8652 13.4964 29.1916 12.3933 31.2986C11.5385 33.0246 9.39093 35.7897 10.3771 37.8062C11.7554 33.9551 13.8645 30.4147 16.5855 27.3847C14.772 27.1016 13.4913 30.3262 16.6258 27.4554L16.5855 27.3847ZM111.203 101.708C111.955 101.842 112.729 101.729 113.413 101.384C114.096 101.04 114.652 100.482 114.999 99.7937C115.844 98.6629 117.952 96.6045 118.018 95.1277C118.084 93.651 115.555 97.1345 115.108 97.6557C113.864 99.0669 112.515 100.375 111.203 101.708C112.666 101.866 112.512 100.329 111.244 101.778L111.203 101.708ZM81.5905 49.4561C80.3526 49.8973 81.3647 50.9792 81.7188 51.9273C82.2221 53.2596 82.7529 54.5994 83.2911 55.9113C84.2493 58.3686 85.2671 60.7675 86.3125 63.1737C87.1503 62.6837 82.2201 51.0918 81.5804 49.4384C81.3682 49.5153 83.2824 53.9361 81.5804 49.4384L81.5905 49.4561ZM102.032 52.6587C100.523 53.3999 96.7872 54.3588 96.6066 56.492C99.4948 56.17 101.611 55.9225 102.032 52.6587C96.711 55.2051 101.905 53.4164 102.039 52.6308L102.032 52.6587ZM33.2512 49.1576C32.4303 50.5889 32.0001 52.2157 32.0046 53.8711C32.9309 53.6041 33.7584 53.0651 34.3828 52.3223C35.0072 51.5794 35.4006 50.6659 35.5132 49.6968L33.2512 49.1576C32.2956 50.7067 34.1019 49.3436 33.2586 49.1296L33.2512 49.1576ZM40.8762 39.1804C41.3923 38.2892 42.5653 36.7543 42.573 35.6652L42.744 34.7401L40.6296 34.2559C38.6568 35.2448 40.426 37.982 40.8762 39.1804C41.8264 37.5401 40.3361 37.9875 40.9038 39.1879L40.8762 39.1804ZM39.8262 41.4214C38.9576 41.6937 37.2133 41.8181 36.5885 42.3958C35.0447 43.7703 36.9853 44.5214 38.0107 45.2183L39.8262 41.4214C38.8951 41.7067 39.0929 42.9112 39.8162 41.4037L39.8262 41.4214ZM105.478 46.3751C105.134 46.9541 101.937 51.5118 103.66 51.8003C104.253 51.9015 105.43 49.6803 105.593 49.2313C105.875 48.2935 105.835 47.2865 105.478 46.3751C104.399 48.1148 106.205 48.4257 105.433 46.3779L105.478 46.3751ZM31.0391 74.7586C32.7089 73.0745 30.0863 70.1056 28.11 70.8844C29.0805 72.1792 30.0685 73.4638 31.0391 74.7586C31.9324 73.8353 29.996 73.4591 30.9941 74.7613L31.0391 74.7586ZM58.8616 30.1925C58.0428 31.0015 54.2886 35.6023 56.4265 36.3321C57.6493 34.4786 58.4785 32.3878 58.8616 30.1925C57.1883 31.6663 58.6402 32.7032 58.7662 30.1068L58.8616 30.1925ZM10.8395 45.7638C12.3955 43.9699 13.3891 41.7472 13.6936 39.379C11.674 41.1027 11.5471 43.5345 10.7442 45.6781L10.8395 45.7638ZM15.5431 45.6058C14.8204 48.9519 20.0457 46.3198 18.429 44.177C17.8104 43.3365 17.6012 44.0719 17.2234 44.5523C16.3932 45.6273 17.4019 46.499 15.4781 45.5731C15.23 46.567 15.9588 45.7634 15.4479 45.52L15.5431 45.6058ZM47.3186 21.7378L49.5251 18.7495C47.0785 18.2946 45.7368 19.5746 47.3186 21.7378C47.9413 20.6663 46.6927 20.9251 47.2233 21.6521L47.3186 21.7378ZM31.0096 30.5232C32.1205 29.6141 33.3285 28.0587 31.4853 27.2743C28.9256 26.1311 30.6098 29.4132 31.0096 30.5232C32.1969 29.3807 30.595 29.469 30.9142 30.4375L31.0096 30.5232ZM24.0811 30.6152C25.5151 30.4366 27.5251 28.247 25.3423 27.5199C24.5238 27.2678 24.2888 27.2638 23.7647 28.0183C23.4795 28.5388 23.8032 28.821 24.768 28.7989L24.0508 30.5621C25.6547 30.3548 24.1976 29.8398 23.9159 30.5704L24.0811 30.6152ZM94.0807 57.8989C94.9273 57.7102 94.6874 54.8799 93.9373 54.2577C91.9562 52.8231 93.5884 57.3617 94.0807 57.8989C94.0579 57.8179 92.9713 56.8504 93.9156 57.854L94.0807 57.8989ZM60.9135 143.313C61.2499 141.372 57.107 141.697 56.0711 142.044C54.6634 142.513 56.1815 142.686 57.0772 142.87C58.3478 143.082 59.6282 143.23 60.9135 143.313C60.889 142.29 58.8751 143.044 60.6778 143.145L60.9135 143.313ZM84.8179 103.019C83.8062 103.163 79.5737 104.72 81.7776 106.26L84.8179 103.019C83.0287 103.147 83.4333 104.183 84.6226 102.922L84.8179 103.019ZM57.3582 16.8553L57.0676 17.2846L61.6063 19.9816C61.094 17.735 59.2228 17.3914 57.3582 16.8553C57.0534 16.8922 58.8898 17.2562 57.1628 16.7575L57.3582 16.8553ZM61.7268 33.7503C63.7223 32.2294 63.9603 31.2179 62.9774 28.7987L61.7268 33.7503ZM30.8099 46.5068C32.0676 44.8752 32.0917 44.6726 30.4398 43.6114C29.0344 45.1879 29.0681 45.451 30.6145 46.4089L30.8099 46.5068ZM44.6031 26.6504L43.5531 28.8914L45.5441 29.7308C46.2713 27.9852 45.8509 27.9009 44.5333 26.6912C44.0414 27.3798 45.0578 27.1625 44.4178 26.5703L44.6031 26.6504ZM75.1502 50.3233C76.4939 48.9244 76.442 48.5068 75.4459 47.0855C73.9142 48.3586 73.8661 48.7641 74.9649 50.2432L75.1502 50.3233ZM43.0159 22.1093C43.7314 21.6907 45.9001 19.7385 44.7658 18.728C43.6315 17.7176 43.0889 21.6658 43.0159 22.1093C44.4684 21.0239 43.043 20.891 42.8305 22.029L43.0159 22.1093ZM76.7117 54.1252C77.9499 52.6229 78.0236 52.344 76.9631 51.0547C75.3911 52.2571 75.343 52.6626 76.5264 54.0451L76.7117 54.1252ZM79.8899 36.7531C78.8336 38.1254 79.798 39.1644 80.3005 40.3322C81.1474 39.0824 81.0619 38.4015 79.7045 36.6728L79.8899 36.7531ZM22.8164 48.2827L22.2255 50.3494C24.9185 50.5423 24.684 47.8032 22.8164 48.2827C22.4963 48.8236 23.867 47.8803 22.6311 48.2025L22.8164 48.2827ZM70.3531 58.1983C69.6506 57.619 67.5558 57.0055 67.9336 58.8121C68.1838 59.986 70.101 59.4303 70.3531 58.1983C69.5029 57.564 69.8996 59.6896 70.2053 58.1433L70.3531 58.1983ZM60.0827 10.57C60.0537 11.3408 60.2133 12.1069 60.5473 12.8C60.8814 13.4931 61.3796 14.0918 61.9974 14.5426C62.1175 13.7366 61.9827 12.9128 61.6122 12.1892C61.2417 11.4657 60.6544 10.8796 59.9349 10.515L60.0827 10.57ZM93.8003 75.415C94.0358 73.8691 93.728 72.2886 92.9307 70.9491C91.6537 72.7099 93.1788 73.916 93.6526 75.3599L93.8003 75.415ZM41.0249 16.696C41.7426 16.8612 42.4858 16.8783 43.2101 16.7463C43.9344 16.6142 44.6251 16.3358 45.2409 15.9274C43.3301 15.6777 41.961 15.2761 40.8772 16.641L41.0249 16.696ZM91.0661 65.8392C90.3187 67.5495 90.3725 67.8481 91.5545 68.9013C92.1583 67.5108 92.1583 67.5108 90.9184 65.7842L91.0661 65.8392ZM89.1667 61.3627L88.9418 63.6632C91.5572 62.6992 91.6794 62.6278 89.1667 61.3627C88.94 62.1083 89.9034 61.757 89.019 61.3076L89.1667 61.3627ZM38.5585 57.8176C39.7938 57.4401 40.8371 56.5932 41.4702 55.4542C39.493 55.4555 39.2688 55.6339 38.4108 57.7625L38.5585 57.8176ZM26.4906 60.1614C27.978 59.0556 28.0712 58.6474 27.2938 56.9566C26.9265 57.3947 26.6546 57.9065 26.496 58.4584C26.3373 59.0103 26.2954 59.5899 26.3731 60.1593L26.4906 60.1614ZM36.4666 24.3369C37.91 24.0113 37.9258 23.059 37.9638 22.0231C36.2901 22.2712 36.29 22.2712 36.4666 24.3369ZM19.9605 42.291C21.8569 41.5354 22.0199 41.0864 20.6981 39.5019L19.9605 42.291ZM20.9285 46.44C24.5327 45.2512 19.9865 44.2562 20.9285 46.44C21.2601 46.246 20.4194 45.4647 20.8258 46.3822L20.9285 46.44ZM51.7988 47.5265C52.9035 46.3616 53.8526 45.6178 53.9167 44.2601C53.327 44.6034 52.8172 45.0713 52.422 45.632C52.0268 46.1927 51.7554 46.833 51.6263 47.5095L51.7988 47.5265ZM16.9868 50.4667C17.1221 51.6843 18.0167 52.7641 19.0952 51.3081L16.9868 50.4667C16.8842 51.0218 17.7757 50.8304 16.8142 50.4498L16.9868 50.4667ZM36.1969 58.4918C33.9679 58.6639 33.9679 58.6639 34.1288 60.0079C35.0117 60.1281 35.5311 59.447 36.0545 58.5278L36.1969 58.4918ZM52.0928 38.7727C50.6784 39.435 50.4281 39.9351 50.7918 41.3491C51.1762 41.0445 51.4803 40.6483 51.6772 40.1959C51.8741 39.7435 51.9575 39.2488 51.9202 38.7558L52.0928 38.7727ZM41.3248 51.9322C43.201 51.1412 43.1809 51.1058 42.6371 49.0898L41.3248 51.9322ZM11.1703 49.366C9.98698 50.2704 9.98697 50.2704 10.6675 51.5462C11.3246 50.9025 11.6641 50.2324 11.1703 49.366ZM105.574 45.8479L107.457 45.6419L106.389 43.7676L105.574 45.8479C106.368 45.6899 105.93 45.003 105.591 45.8377L105.574 45.8479ZM42.1907 30.5842C41.8245 33.6983 44.4026 31.648 42.1907 30.5842C42.1916 31.3617 42.8723 30.9635 42.2082 30.574L42.1907 30.5842ZM85.466 71.897C84.5137 73.0434 84.5293 73.1523 85.7024 73.9042C86.3413 73.1061 86.3034 72.4681 85.4835 71.8868L85.466 71.897ZM64.0498 23.1261L64.2546 25.3639C65.4532 23.9555 65.4532 23.9555 64.0773 23.1336L64.0498 23.1261ZM31.3422 33.3935C33.3091 32.7617 33.4527 32.4419 32.4023 31.1703L31.3422 33.3935ZM76.6037 43.7677C76.0743 45.044 76.7741 45.5777 77.2081 46.5026C77.8778 45.3093 77.4949 44.6374 76.6312 43.7752L76.6037 43.7677ZM1.69452 40.9046C2.6224 41.0219 2.44657 39.1208 2.56315 38.3453C1.77291 38.2653 1.83665 40.2556 1.69452 40.9046C1.86905 40.8025 1.84528 39.9441 1.69452 40.9046ZM73.5765 46.01C74.4356 45.2717 74.7705 44.6751 74.376 43.6562C73.9888 43.8801 73.6976 44.2421 73.5595 44.6716C73.4214 45.1011 73.4461 45.5673 73.6288 45.9794L73.5765 46.01ZM21.9482 56.6415L21.8456 54.9097C20.9422 55.8153 20.9423 55.8153 21.9503 56.5224L21.9482 56.6415ZM35.256 19.599C35.5039 20.2791 37.5958 19.6214 37.2847 18.7896L35.256 19.599C35.311 19.6139 35.8842 19.2315 35.2579 19.48L35.256 19.599ZM52.2409 16.7366L52.226 16.1795C49.55 16.4246 49.3272 16.9321 52.2409 16.7366C52.2818 16.3591 51.5279 16.5878 52.2926 16.5413L52.2409 16.7366ZM102.565 29.0532L102.848 28.4872C100.862 27.5743 100.625 27.8539 102.565 29.0532C102.722 28.9613 102.041 28.7466 102.565 29.0532ZM78.8471 42.927C78.9121 42.5182 78.8674 42.0991 78.7174 41.7139C78.5675 41.3287 78.318 40.9915 77.9952 40.7376C77.8619 41.1458 77.8742 41.5886 78.0299 41.9886C78.1856 42.3886 78.4747 42.7207 78.8471 42.927ZM33.7538 20.7606L33.5019 20.3185C33.0307 20.5942 31.9472 20.898 32.2347 21.4842L33.7363 20.7708C33.6906 20.6089 33.2624 21.0008 33.7538 20.7606ZM20.7763 53.319L22.4168 52.3594C21.3317 51.721 20.9054 51.9939 20.7763 53.319ZM80.0282 45.4896C78.8279 45.956 79.918 47.1337 80.7741 47.4109L80.0282 45.4896C79.8758 45.508 80.2204 45.9902 80.0181 45.4719L80.0282 45.4896ZM11.9916 56.5243C11.9114 55.3217 11.9114 55.3216 11.2962 54.6913C10.7573 55.5016 11.1717 55.943 11.9916 56.5243ZM89.8765 72.7356L90.4176 72.4191L89.5577 70.7059C89.0691 70.9918 89.6918 72.2072 89.8262 72.6472C90.0712 72.6689 89.6964 72.1337 89.8765 72.7356ZM96.0065 60.9925C95.1042 61.0016 95.0236 60.8602 94.3518 61.5596C95.1093 62.1539 95.6228 61.8299 96.0065 60.9925C95.4567 61.0076 95.4839 62.0762 96.0065 60.9925ZM78.716 48.3319L78.0915 48.4613C78.5687 50.1155 79.0187 50.0881 78.716 48.3319C78.5112 48.381 78.7981 48.8026 78.716 48.3319ZM46.846 41.0403C46.1672 40.7065 46.0245 41.8037 45.9468 42.3207C46.5047 42.4423 46.6481 41.5097 46.846 41.0403C46.7534 41.0002 46.6656 41.4995 46.8561 41.058L46.846 41.0403ZM44.6288 52.3807L45.8327 51.0635C44.733 51.0938 44.6097 51.4489 44.6388 52.3984L44.6288 52.3807ZM9.34746 46.9431C9.23181 48.496 10.8266 47.3745 9.34746 46.9431C9.33416 47.3281 9.69791 47.068 9.35749 46.9606L9.34746 46.9431ZM105.17 103.492C105.502 104.076 105.973 103.8 106.339 102.808C105.986 102.189 105.532 102.455 105.17 103.492C105.275 103.596 105.458 103.182 105.18 103.51L105.17 103.492ZM53.621 20.2202C54.5286 19.6893 54.5286 19.6894 54.0477 18.8862L53.621 20.2202ZM66.4941 56.6127L67.142 56.7288C67.1732 59.8462 67.2078 54.6391 66.8174 55.6691C66.6913 55.9786 66.5927 56.2957 66.4941 56.6127C66.5054 56.3467 66.5646 56.7364 66.4941 56.6127ZM49.9321 6.11051C49.4319 6.04946 49.3406 6.33859 49.6685 6.99556C50.2136 7.05389 50.3049 6.76475 49.9321 6.11051C49.7374 6.17724 49.8886 6.44246 49.8448 6.16155L49.9321 6.11051ZM19.3207 59.3809C19.7395 59.1359 19.6279 58.7767 19.0162 58.3566C18.5687 58.524 18.6702 58.8655 19.3207 59.3809C19.3207 59.3809 19.0218 59.0606 19.2334 59.4319L19.3207 59.3809ZM87.9185 67.4211C88.5188 67.4944 88.565 67.2079 88.0371 66.5265C87.6047 66.5436 87.5484 66.8124 87.9185 67.4211C87.9662 67.4639 87.7875 67.1912 87.8313 67.4721L87.9185 67.4211ZM28.379 42.8127C27.7989 42.7748 27.2277 43.0383 27.9798 43.5414L28.379 42.8127C28.089 42.7938 28.218 43.1427 28.379 42.8127ZM73.6679 110.037C73.5301 109.386 73.1528 109.419 72.5736 110.158C72.7034 110.672 73.0806 110.64 73.6679 110.037C73.5974 109.913 73.3584 110.147 73.6679 110.037ZM103.402 105.045C103.907 105.197 104.086 105.022 103.964 104.481L103.402 105.045C103.7 104.753 103.751 105.006 103.402 105.045ZM93.5281 93.6808C93.9746 94.0561 94.2062 93.85 94.2053 93.0725C93.8467 92.8107 93.6151 93.0168 93.5281 93.6808C93.6932 93.7256 93.7294 93.4215 93.5805 93.6501L93.5281 93.6808ZM21.345 31.98C21.6271 32.4751 21.8593 32.4335 22.1787 31.728C22.1363 31.6352 22.0857 31.5464 22.0275 31.4627L21.4147 31.9392C21.4853 32.063 21.5865 31.7915 21.3973 31.9494L21.345 31.98ZM92.2807 78.8737C92.4383 78.3336 92.576 78.3709 91.9998 78.0949C92.1308 78.3248 92.2719 78.5724 92.2807 78.8737C92.474 78.4778 92.2464 78.4459 92.3854 78.8125L92.2807 78.8737Z" fill="#333333"/>
</svg>
